-- Merging decision tree log ---
manifest
ADDED from /home/vrushabh/flutter_project/any_time/android/app/src/main/AndroidManifest.xml:1:1-46:12
INJECTED from /home/vrushabh/flutter_project/any_time/android/app/src/main/AndroidManifest.xml:1:1-46:12
INJECTED from /home/vrushabh/flutter_project/any_time/android/app/src/main/AndroidManifest.xml:1:1-46:12
INJECTED from /home/vrushabh/flutter_project/any_time/android/app/src/main/AndroidManifest.xml:1:1-46:12
MERGED from [:video_player] /home/vrushabh/flutter_project/any_time/build/video_player/intermediates/library_manifest/release/AndroidManifest.xml:2:1-7:12
MERGED from [com.google.android.exoplayer:exoplayer-hls:2.12.1] /home/vrushabh/.gradle/caches/transforms-2/files-2.1/28dcff47339054ea367a1e8b9fddab71/jetified-exoplayer-hls-2.12.1/AndroidManifest.xml:17:1-24:12
MERGED from [com.google.android.exoplayer:exoplayer-dash:2.12.1] /home/vrushabh/.gradle/caches/transforms-2/files-2.1/90ad7cb4924ebf2538798cd2061da7e4/jetified-exoplayer-dash-2.12.1/AndroidManifest.xml:17:1-24:12
MERGED from [com.google.android.exoplayer:exoplayer-smoothstreaming:2.12.1] /home/vrushabh/.gradle/caches/transforms-2/files-2.1/eefcfa9a53f214249a7f464c6486cfd8/jetified-exoplayer-smoothstreaming-2.12.1/AndroidManifest.xml:17:1-24:12
MERGED from [com.google.android.exoplayer:exoplayer-core:2.12.1] /home/vrushabh/.gradle/caches/transforms-2/files-2.1/efb71a39de811f8d922f386647a1ffa8/jetified-exoplayer-core-2.12.1/AndroidManifest.xml:17:1-26:12
MERGED from [com.google.android.exoplayer:exoplayer-extractor:2.12.1] /home/vrushabh/.gradle/caches/transforms-2/files-2.1/32deb2aa177ec436f007cb596d0a93c5/jetified-exoplayer-extractor-2.12.1/AndroidManifest.xml:17:1-24:12
MERGED from [com.google.android.exoplayer:exoplayer-common:2.12.1] /home/vrushabh/.gradle/caches/transforms-2/files-2.1/6830ae7faaa0ead0c6c6fa9abf1675a7/jetified-exoplayer-common-2.12.1/AndroidManifest.xml:17:1-26:12
MERGED from [androidx.fragment:fragment:1.1.0] /home/vrushabh/.gradle/caches/transforms-2/files-2.1/2fd9120a6da4df3dbabdd40f6a2d8995/fragment-1.1.0/AndroidManifest.xml:17:1-24:12
MERGED from [androidx.activity:activity:1.0.0] /home/vrushabh/.gradle/caches/transforms-2/files-2.1/68dbf8ea01a1dbd974fc87b5753550f0/jetified-activity-1.0.0/AndroidManifest.xml:17:1-24:12
MERGED from [androidx.viewpager:viewpager:1.0.0] /home/vrushabh/.gradle/caches/transforms-2/files-2.1/eb26273f8f7192460456ce62b9bdf9ef/viewpager-1.0.0/AndroidManifest.xml:17:1-22:12
MERGED from [androidx.loader:loader:1.0.0] /home/vrushabh/.gradle/caches/transforms-2/files-2.1/d9536c14ffde0b7289f12ba6def6bfa4/loader-1.0.0/AndroidManifest.xml:17:1-22:12
MERGED from [androidx.customview:customview:1.0.0] /home/vrushabh/.gradle/caches/transforms-2/files-2.1/bc28a09d8d2212ffd5788fe6c1853326/customview-1.0.0/AndroidManifest.xml:17:1-22:12
MERGED from [androidx.core:core:1.1.0] /home/vrushabh/.gradle/caches/transforms-2/files-2.1/2e94107f30f39be366a17347c2bf100b/core-1.1.0/AndroidManifest.xml:17:1-26:12
MERGED from [androidx.lifecycle:lifecycle-runtime:2.2.0] /home/vrushabh/.gradle/caches/transforms-2/files-2.1/ca6b214160bd0909b103aa12202ef51c/lifecycle-runtime-2.2.0/AndroidManifest.xml:17:1-24:12
MERGED from [androidx.savedstate:savedstate:1.0.0] /home/vrushabh/.gradle/caches/transforms-2/files-2.1/2271d874344878e62b9a8e309af0c39d/jetified-savedstate-1.0.0/AndroidManifest.xml:17:1-24:12
MERGED from [androidx.lifecycle:lifecycle-livedata:2.0.0] /home/vrushabh/.gradle/caches/transforms-2/files-2.1/fb333fb43575d8a3b51161295454427f/lifecycle-livedata-2.0.0/AndroidManifest.xml:17:1-22:12
MERGED from [androidx.lifecycle:lifecycle-livedata-core:2.0.0] /home/vrushabh/.gradle/caches/transforms-2/files-2.1/cad25976877a6ae855ef6821534f58a1/lifecycle-livedata-core-2.0.0/AndroidManifest.xml:17:1-22:12
MERGED from [androidx.arch.core:core-runtime:2.0.0] /home/vrushabh/.gradle/caches/transforms-2/files-2.1/5f606c30f064eed94124828de37fadc0/core-runtime-2.0.0/AndroidManifest.xml:17:1-22:12
MERGED from [androidx.versionedparcelable:versionedparcelable:1.1.0] /home/vrushabh/.gradle/caches/transforms-2/files-2.1/96aee308bccd03bc62c306516c23a410/versionedparcelable-1.1.0/AndroidManifest.xml:17:1-27:12
MERGED from [androidx.lifecycle:lifecycle-viewmodel:2.1.0] /home/vrushabh/.gradle/caches/transforms-2/files-2.1/15792e6083b2b5b5a7ffa285d47daa24/lifecycle-viewmodel-2.1.0/AndroidManifest.xml:17:1-22:12
INJECTED from /home/vrushabh/flutter_project/any_time/android/app/src/main/AndroidManifest.xml:1:1-46:12
INJECTED from /home/vrushabh/flutter_project/any_time/android/app/src/main/AndroidManifest.xml:1:1-46:12
INJECTED from /home/vrushabh/flutter_project/any_time/android/app/src/main/AndroidManifest.xml:1:1-46:12
	package
		ADDED from /home/vrushabh/flutter_project/any_time/android/app/src/main/AndroidManifest.xml:2:5-35
		INJECTED from /home/vrushabh/flutter_project/any_time/android/app/src/main/AndroidManifest.xml
		INJECTED from /home/vrushabh/flutter_project/any_time/android/app/src/main/AndroidManifest.xml
	android:versionName
		INJECTED from /home/vrushabh/flutter_project/any_time/android/app/src/main/AndroidManifest.xml
		ADDED from /home/vrushabh/flutter_project/any_time/android/app/src/main/AndroidManifest.xml:1:1-46:12
		INJECTED from /home/vrushabh/flutter_project/any_time/android/app/src/main/AndroidManifest.xml
	android:versionCode
		INJECTED from /home/vrushabh/flutter_project/any_time/android/app/src/main/AndroidManifest.xml
		ADDED from /home/vrushabh/flutter_project/any_time/android/app/src/main/AndroidManifest.xml:1:1-46:12
		INJECTED from /home/vrushabh/flutter_project/any_time/android/app/src/main/AndroidManifest.xml
	xmlns:android
		ADDED from /home/vrushabh/flutter_project/any_time/android/app/src/main/AndroidManifest.xml:1:11-69
uses-permission#android.permission.INTERNET
ADDED from /home/vrushabh/flutter_project/any_time/android/app/src/main/AndroidManifest.xml:4:5-67
	android:name
		ADDED from /home/vrushabh/flutter_project/any_time/android/app/src/main/AndroidManifest.xml:4:22-64
application
ADDED from /home/vrushabh/flutter_project/any_time/android/app/src/main/AndroidManifest.xml:6:4-45:19
MERGED from [androidx.core:core:1.1.0] /home/vrushabh/.gradle/caches/transforms-2/files-2.1/2e94107f30f39be366a17347c2bf100b/core-1.1.0/AndroidManifest.xml:24:5-89
MERGED from [androidx.core:core:1.1.0] /home/vrushabh/.gradle/caches/transforms-2/files-2.1/2e94107f30f39be366a17347c2bf100b/core-1.1.0/AndroidManifest.xml:24:5-89
MERGED from [androidx.versionedparcelable:versionedparcelable:1.1.0] /home/vrushabh/.gradle/caches/transforms-2/files-2.1/96aee308bccd03bc62c306516c23a410/versionedparcelable-1.1.0/AndroidManifest.xml:24:5-25:19
MERGED from [androidx.versionedparcelable:versionedparcelable:1.1.0] /home/vrushabh/.gradle/caches/transforms-2/files-2.1/96aee308bccd03bc62c306516c23a410/versionedparcelable-1.1.0/AndroidManifest.xml:24:5-25:19
	android:appComponentFactory
		ADDED from [androidx.core:core:1.1.0] /home/vrushabh/.gradle/caches/transforms-2/files-2.1/2e94107f30f39be366a17347c2bf100b/core-1.1.0/AndroidManifest.xml:24:18-86
	android:label
		ADDED from /home/vrushabh/flutter_project/any_time/android/app/src/main/AndroidManifest.xml:7:9-33
	android:icon
		ADDED from /home/vrushabh/flutter_project/any_time/android/app/src/main/AndroidManifest.xml:8:9-43
	android:usesCleartextTraffic
		ADDED from /home/vrushabh/flutter_project/any_time/android/app/src/main/AndroidManifest.xml:9:9-44
activity#com.example.any_time.MainActivity
ADDED from /home/vrushabh/flutter_project/any_time/android/app/src/main/AndroidManifest.xml:10:9-39:20
	android:launchMode
		ADDED from /home/vrushabh/flutter_project/any_time/android/app/src/main/AndroidManifest.xml:12:13-43
	android:hardwareAccelerated
		ADDED from /home/vrushabh/flutter_project/any_time/android/app/src/main/AndroidManifest.xml:15:13-47
	android:windowSoftInputMode
		ADDED from /home/vrushabh/flutter_project/any_time/android/app/src/main/AndroidManifest.xml:16:13-55
	android:configChanges
		ADDED from /home/vrushabh/flutter_project/any_time/android/app/src/main/AndroidManifest.xml:14:13-163
	android:theme
		ADDED from /home/vrushabh/flutter_project/any_time/android/app/src/main/AndroidManifest.xml:13:13-47
	android:name
		ADDED from /home/vrushabh/flutter_project/any_time/android/app/src/main/AndroidManifest.xml:11:13-41
meta-data#io.flutter.embedding.android.NormalTheme
ADDED from /home/vrushabh/flutter_project/any_time/android/app/src/main/AndroidManifest.xml:22:13-25:17
	android:resource
		ADDED from /home/vrushabh/flutter_project/any_time/android/app/src/main/AndroidManifest.xml:24:15-52
	android:name
		ADDED from /home/vrushabh/flutter_project/any_time/android/app/src/main/AndroidManifest.xml:23:15-70
meta-data#io.flutter.embedding.android.SplashScreenDrawable
ADDED from /home/vrushabh/flutter_project/any_time/android/app/src/main/AndroidManifest.xml:31:13-34:17
	android:resource
		ADDED from /home/vrushabh/flutter_project/any_time/android/app/src/main/AndroidManifest.xml:33:15-61
	android:name
		ADDED from /home/vrushabh/flutter_project/any_time/android/app/src/main/AndroidManifest.xml:32:15-79
intent-filter#action:name:android.intent.action.MAIN+category:name:android.intent.category.LAUNCHER
ADDED from /home/vrushabh/flutter_project/any_time/android/app/src/main/AndroidManifest.xml:35:13-38:29
action#android.intent.action.MAIN
ADDED from /home/vrushabh/flutter_project/any_time/android/app/src/main/AndroidManifest.xml:36:17-68
	android:name
		ADDED from /home/vrushabh/flutter_project/any_time/android/app/src/main/AndroidManifest.xml:36:25-66
category#android.intent.category.LAUNCHER
ADDED from /home/vrushabh/flutter_project/any_time/android/app/src/main/AndroidManifest.xml:37:17-76
	android:name
		ADDED from /home/vrushabh/flutter_project/any_time/android/app/src/main/AndroidManifest.xml:37:27-74
meta-data#flutterEmbedding
ADDED from /home/vrushabh/flutter_project/any_time/android/app/src/main/AndroidManifest.xml:42:9-44:33
	android:value
		ADDED from /home/vrushabh/flutter_project/any_time/android/app/src/main/AndroidManifest.xml:44:13-30
	android:name
		ADDED from /home/vrushabh/flutter_project/any_time/android/app/src/main/AndroidManifest.xml:43:13-44
uses-sdk
INJECTED from /home/vrushabh/flutter_project/any_time/android/app/src/main/AndroidManifest.xml reason: use-sdk injection requested
INJECTED from /home/vrushabh/flutter_project/any_time/android/app/src/main/AndroidManifest.xml
INJECTED from /home/vrushabh/flutter_project/any_time/android/app/src/main/AndroidManifest.xml
MERGED from [:video_player] /home/vrushabh/flutter_project/any_time/build/video_player/intermediates/library_manifest/release/AndroidManifest.xml:5:5-44
MERGED from [:video_player] /home/vrushabh/flutter_project/any_time/build/video_player/intermediates/library_manifest/release/AndroidManifest.xml:5:5-44
MERGED from [com.google.android.exoplayer:exoplayer-hls:2.12.1] /home/vrushabh/.gradle/caches/transforms-2/files-2.1/28dcff47339054ea367a1e8b9fddab71/jetified-exoplayer-hls-2.12.1/AndroidManifest.xml:20:5-22:41
MERGED from [com.google.android.exoplayer:exoplayer-hls:2.12.1] /home/vrushabh/.gradle/caches/transforms-2/files-2.1/28dcff47339054ea367a1e8b9fddab71/jetified-exoplayer-hls-2.12.1/AndroidManifest.xml:20:5-22:41
MERGED from [com.google.android.exoplayer:exoplayer-dash:2.12.1] /home/vrushabh/.gradle/caches/transforms-2/files-2.1/90ad7cb4924ebf2538798cd2061da7e4/jetified-exoplayer-dash-2.12.1/AndroidManifest.xml:20:5-22:41
MERGED from [com.google.android.exoplayer:exoplayer-dash:2.12.1] /home/vrushabh/.gradle/caches/transforms-2/files-2.1/90ad7cb4924ebf2538798cd2061da7e4/jetified-exoplayer-dash-2.12.1/AndroidManifest.xml:20:5-22:41
MERGED from [com.google.android.exoplayer:exoplayer-smoothstreaming:2.12.1] /home/vrushabh/.gradle/caches/transforms-2/files-2.1/eefcfa9a53f214249a7f464c6486cfd8/jetified-exoplayer-smoothstreaming-2.12.1/AndroidManifest.xml:20:5-22:41
MERGED from [com.google.android.exoplayer:exoplayer-smoothstreaming:2.12.1] /home/vrushabh/.gradle/caches/transforms-2/files-2.1/eefcfa9a53f214249a7f464c6486cfd8/jetified-exoplayer-smoothstreaming-2.12.1/AndroidManifest.xml:20:5-22:41
MERGED from [com.google.android.exoplayer:exoplayer-core:2.12.1] /home/vrushabh/.gradle/caches/transforms-2/files-2.1/efb71a39de811f8d922f386647a1ffa8/jetified-exoplayer-core-2.12.1/AndroidManifest.xml:20:5-22:41
MERGED from [com.google.android.exoplayer:exoplayer-core:2.12.1] /home/vrushabh/.gradle/caches/transforms-2/files-2.1/efb71a39de811f8d922f386647a1ffa8/jetified-exoplayer-core-2.12.1/AndroidManifest.xml:20:5-22:41
MERGED from [com.google.android.exoplayer:exoplayer-extractor:2.12.1] /home/vrushabh/.gradle/caches/transforms-2/files-2.1/32deb2aa177ec436f007cb596d0a93c5/jetified-exoplayer-extractor-2.12.1/AndroidManifest.xml:20:5-22:41
MERGED from [com.google.android.exoplayer:exoplayer-extractor:2.12.1] /home/vrushabh/.gradle/caches/transforms-2/files-2.1/32deb2aa177ec436f007cb596d0a93c5/jetified-exoplayer-extractor-2.12.1/AndroidManifest.xml:20:5-22:41
MERGED from [com.google.android.exoplayer:exoplayer-common:2.12.1] /home/vrushabh/.gradle/caches/transforms-2/files-2.1/6830ae7faaa0ead0c6c6fa9abf1675a7/jetified-exoplayer-common-2.12.1/AndroidManifest.xml:20:5-22:41
MERGED from [com.google.android.exoplayer:exoplayer-common:2.12.1] /home/vrushabh/.gradle/caches/transforms-2/files-2.1/6830ae7faaa0ead0c6c6fa9abf1675a7/jetified-exoplayer-common-2.12.1/AndroidManifest.xml:20:5-22:41
MERGED from [androidx.fragment:fragment:1.1.0] /home/vrushabh/.gradle/caches/transforms-2/files-2.1/2fd9120a6da4df3dbabdd40f6a2d8995/fragment-1.1.0/AndroidManifest.xml:20:5-22:41
MERGED from [androidx.fragment:fragment:1.1.0] /home/vrushabh/.gradle/caches/transforms-2/files-2.1/2fd9120a6da4df3dbabdd40f6a2d8995/fragment-1.1.0/AndroidManifest.xml:20:5-22:41
MERGED from [androidx.activity:activity:1.0.0] /home/vrushabh/.gradle/caches/transforms-2/files-2.1/68dbf8ea01a1dbd974fc87b5753550f0/jetified-activity-1.0.0/AndroidManifest.xml:20:5-22:41
MERGED from [androidx.activity:activity:1.0.0] /home/vrushabh/.gradle/caches/transforms-2/files-2.1/68dbf8ea01a1dbd974fc87b5753550f0/jetified-activity-1.0.0/AndroidManifest.xml:20:5-22:41
MERGED from [androidx.viewpager:viewpager:1.0.0] /home/vrushabh/.gradle/caches/transforms-2/files-2.1/eb26273f8f7192460456ce62b9bdf9ef/viewpager-1.0.0/AndroidManifest.xml:20:5-44
MERGED from [androidx.viewpager:viewpager:1.0.0] /home/vrushabh/.gradle/caches/transforms-2/files-2.1/eb26273f8f7192460456ce62b9bdf9ef/viewpager-1.0.0/AndroidManifest.xml:20:5-44
MERGED from [androidx.loader:loader:1.0.0] /home/vrushabh/.gradle/caches/transforms-2/files-2.1/d9536c14ffde0b7289f12ba6def6bfa4/loader-1.0.0/AndroidManifest.xml:20:5-44
MERGED from [androidx.loader:loader:1.0.0] /home/vrushabh/.gradle/caches/transforms-2/files-2.1/d9536c14ffde0b7289f12ba6def6bfa4/loader-1.0.0/AndroidManifest.xml:20:5-44
MERGED from [androidx.customview:customview:1.0.0] /home/vrushabh/.gradle/caches/transforms-2/files-2.1/bc28a09d8d2212ffd5788fe6c1853326/customview-1.0.0/AndroidManifest.xml:20:5-44
MERGED from [androidx.customview:customview:1.0.0] /home/vrushabh/.gradle/caches/transforms-2/files-2.1/bc28a09d8d2212ffd5788fe6c1853326/customview-1.0.0/AndroidManifest.xml:20:5-44
MERGED from [androidx.core:core:1.1.0] /home/vrushabh/.gradle/caches/transforms-2/files-2.1/2e94107f30f39be366a17347c2bf100b/core-1.1.0/AndroidManifest.xml:20:5-22:41
MERGED from [androidx.core:core:1.1.0] /home/vrushabh/.gradle/caches/transforms-2/files-2.1/2e94107f30f39be366a17347c2bf100b/core-1.1.0/AndroidManifest.xml:20:5-22:41
MERGED from [androidx.lifecycle:lifecycle-runtime:2.2.0] /home/vrushabh/.gradle/caches/transforms-2/files-2.1/ca6b214160bd0909b103aa12202ef51c/lifecycle-runtime-2.2.0/AndroidManifest.xml:20:5-22:41
MERGED from [androidx.lifecycle:lifecycle-runtime:2.2.0] /home/vrushabh/.gradle/caches/transforms-2/files-2.1/ca6b214160bd0909b103aa12202ef51c/lifecycle-runtime-2.2.0/AndroidManifest.xml:20:5-22:41
MERGED from [androidx.savedstate:savedstate:1.0.0] /home/vrushabh/.gradle/caches/transforms-2/files-2.1/2271d874344878e62b9a8e309af0c39d/jetified-savedstate-1.0.0/AndroidManifest.xml:20:5-22:41
MERGED from [androidx.savedstate:savedstate:1.0.0] /home/vrushabh/.gradle/caches/transforms-2/files-2.1/2271d874344878e62b9a8e309af0c39d/jetified-savedstate-1.0.0/AndroidManifest.xml:20:5-22:41
MERGED from [androidx.lifecycle:lifecycle-livedata:2.0.0] /home/vrushabh/.gradle/caches/transforms-2/files-2.1/fb333fb43575d8a3b51161295454427f/lifecycle-livedata-2.0.0/AndroidManifest.xml:20:5-44
MERGED from [androidx.lifecycle:lifecycle-livedata:2.0.0] /home/vrushabh/.gradle/caches/transforms-2/files-2.1/fb333fb43575d8a3b51161295454427f/lifecycle-livedata-2.0.0/AndroidManifest.xml:20:5-44
MERGED from [androidx.lifecycle:lifecycle-livedata-core:2.0.0] /home/vrushabh/.gradle/caches/transforms-2/files-2.1/cad25976877a6ae855ef6821534f58a1/lifecycle-livedata-core-2.0.0/AndroidManifest.xml:20:5-44
MERGED from [androidx.lifecycle:lifecycle-livedata-core:2.0.0] /home/vrushabh/.gradle/caches/transforms-2/files-2.1/cad25976877a6ae855ef6821534f58a1/lifecycle-livedata-core-2.0.0/AndroidManifest.xml:20:5-44
MERGED from [androidx.arch.core:core-runtime:2.0.0] /home/vrushabh/.gradle/caches/transforms-2/files-2.1/5f606c30f064eed94124828de37fadc0/core-runtime-2.0.0/AndroidManifest.xml:20:5-44
MERGED from [androidx.arch.core:core-runtime:2.0.0] /home/vrushabh/.gradle/caches/transforms-2/files-2.1/5f606c30f064eed94124828de37fadc0/core-runtime-2.0.0/AndroidManifest.xml:20:5-44
MERGED from [androidx.versionedparcelable:versionedparcelable:1.1.0] /home/vrushabh/.gradle/caches/transforms-2/files-2.1/96aee308bccd03bc62c306516c23a410/versionedparcelable-1.1.0/AndroidManifest.xml:20:5-22:41
MERGED from [androidx.versionedparcelable:versionedparcelable:1.1.0] /home/vrushabh/.gradle/caches/transforms-2/files-2.1/96aee308bccd03bc62c306516c23a410/versionedparcelable-1.1.0/AndroidManifest.xml:20:5-22:41
MERGED from [androidx.lifecycle:lifecycle-viewmodel:2.1.0] /home/vrushabh/.gradle/caches/transforms-2/files-2.1/15792e6083b2b5b5a7ffa285d47daa24/lifecycle-viewmodel-2.1.0/AndroidManifest.xml:20:5-44
MERGED from [androidx.lifecycle:lifecycle-viewmodel:2.1.0] /home/vrushabh/.gradle/caches/transforms-2/files-2.1/15792e6083b2b5b5a7ffa285d47daa24/lifecycle-viewmodel-2.1.0/AndroidManifest.xml:20:5-44
INJECTED from /home/vrushabh/flutter_project/any_time/android/app/src/main/AndroidManifest.xml
INJECTED from /home/vrushabh/flutter_project/any_time/android/app/src/main/AndroidManifest.xml
	android:targetSdkVersion
		INJECTED from /home/vrushabh/flutter_project/any_time/android/app/src/main/AndroidManifest.xml
		ADDED from /home/vrushabh/flutter_project/any_time/android/app/src/main/AndroidManifest.xml
		INJECTED from /home/vrushabh/flutter_project/any_time/android/app/src/main/AndroidManifest.xml
	android:minSdkVersion
		INJECTED from /home/vrushabh/flutter_project/any_time/android/app/src/main/AndroidManifest.xml
		ADDED from /home/vrushabh/flutter_project/any_time/android/app/src/main/AndroidManifest.xml
		INJECTED from /home/vrushabh/flutter_project/any_time/android/app/src/main/AndroidManifest.xml
uses-permission#android.permission.ACCESS_NETWORK_STATE
ADDED from [com.google.android.exoplayer:exoplayer-core:2.12.1] /home/vrushabh/.gradle/caches/transforms-2/files-2.1/efb71a39de811f8d922f386647a1ffa8/jetified-exoplayer-core-2.12.1/AndroidManifest.xml:24:5-79
MERGED from [com.google.android.exoplayer:exoplayer-common:2.12.1] /home/vrushabh/.gradle/caches/transforms-2/files-2.1/6830ae7faaa0ead0c6c6fa9abf1675a7/jetified-exoplayer-common-2.12.1/AndroidManifest.xml:24:5-79
MERGED from [com.google.android.exoplayer:exoplayer-common:2.12.1] /home/vrushabh/.gradle/caches/transforms-2/files-2.1/6830ae7faaa0ead0c6c6fa9abf1675a7/jetified-exoplayer-common-2.12.1/AndroidManifest.xml:24:5-79
	android:name
		ADDED from [com.google.android.exoplayer:exoplayer-core:2.12.1] /home/vrushabh/.gradle/caches/transforms-2/files-2.1/efb71a39de811f8d922f386647a1ffa8/jetified-exoplayer-core-2.12.1/AndroidManifest.xml:24:22-76
